{
  "version": 1,
  "isRoot": true,
  "tools": {
    "dotnet-reportgenerator-globaltool": {
      "version": "5.4.4",
      "commands": [
        "reportgenerator"
      ]
    },
    "dotnet-script": {
      "version": "1.6.0",
      "commands": [
        "dotnet-script"
      ]
    },
    "dotnet-sonarscanner": {
      "version": "9.2.1",
      "commands": [
        "dotnet-sonarscanner"
      ]
    },
    "husky": {
      "version": "0.7.2",
      "commands": [
        "husky"
      ]
    }
  }
}